%YAML 1.1
%TAG !u! tag:unity3d.com,2011:
--- !u!1001 &7935620086835011494
PrefabInstance:
  m_ObjectHideFlags: 0
  serializedVersion: 2
  m_Modification:
    m_TransformParent: {fileID: 0}
    m_Modifications:
    - target: {fileID: 1613000031, guid: 2181b1474a7b9394aab9937bb8717a76, type: 3}
      propertyPath: m_Name
      value: Farm Variant
      objectReference: {fileID: 0}
    - target: {fileID: 1613000031, guid: 2181b1474a7b9394aab9937bb8717a76, type: 3}
      propertyPath: m_TagString
      value: Resource
      objectReference: {fileID: 0}
    - target: {fileID: 1613000034, guid: 2181b1474a7b9394aab9937bb8717a76, type: 3}
      propertyPath: m_LocalPosition.x
      value: 40.47265
      objectReference: {fileID: 0}
    - target: {fileID: 1613000034, guid: 2181b1474a7b9394aab9937bb8717a76, type: 3}
      propertyPath: m_LocalPosition.y
      value: -0
      objectReference: {fileID: 0}
    - target: {fileID: 1613000034, guid: 2181b1474a7b9394aab9937bb8717a76, type: 3}
      propertyPath: m_LocalPosition.z
      value: 32.901676
      objectReference: {fileID: 0}
    - target: {fileID: 1613000034, guid: 2181b1474a7b9394aab9937bb8717a76, type: 3}
      propertyPath: m_LocalRotation.x
      value: -0
      objectReference: {fileID: 0}
    - target: {fileID: 1613000034, guid: 2181b1474a7b9394aab9937bb8717a76, type: 3}
      propertyPath: m_LocalRotation.y
      value: -0
      objectReference: {fileID: 0}
    - target: {fileID: 1613000034, guid: 2181b1474a7b9394aab9937bb8717a76, type: 3}
      propertyPath: m_LocalRotation.z
      value: -0
      objectReference: {fileID: 0}
    - target: {fileID: 1613000034, guid: 2181b1474a7b9394aab9937bb8717a76, type: 3}
      propertyPath: m_LocalRotation.w
      value: 1
      objectReference: {fileID: 0}
    - target: {fileID: 1613000034, guid: 2181b1474a7b9394aab9937bb8717a76, type: 3}
      propertyPath: m_RootOrder
      value: 0
      objectReference: {fileID: 0}
    - target: {fileID: 1613000034, guid: 2181b1474a7b9394aab9937bb8717a76, type: 3}
      propertyPath: m_LocalEulerAnglesHint.x
      value: 0
      objectReference: {fileID: 0}
    - target: {fileID: 1613000034, guid: 2181b1474a7b9394aab9937bb8717a76, type: 3}
      propertyPath: m_LocalEulerAnglesHint.y
      value: 0
      objectReference: {fileID: 0}
    - target: {fileID: 1613000034, guid: 2181b1474a7b9394aab9937bb8717a76, type: 3}
      propertyPath: m_LocalEulerAnglesHint.z
      value: 0
      objectReference: {fileID: 0}
    - target: {fileID: 1740829018388009508, guid: 2181b1474a7b9394aab9937bb8717a76,
        type: 3}
      propertyPath: m_IsTrigger
      value: 1
      objectReference: {fileID: 0}
    m_RemovedComponents: []
  m_SourcePrefab: {fileID: 100100000, guid: 2181b1474a7b9394aab9937bb8717a76, type: 3}
