%YAML 1.1
%TAG !u! tag:unity3d.com,2011:
--- !u!208 &1416707568
NavMeshObstacle:
  m_ObjectHideFlags: 0
  m_CorrespondingSourceObject: {fileID: 0}
  m_PrefabInstance: {fileID: 0}
  m_PrefabAsset: {fileID: 0}
  m_GameObject: {fileID: 7973652774553775250}
  m_Enabled: 1
  serializedVersion: 3
  m_Shape: 1
  m_Extents: {x: 1, y: 1.1320001, z: 0.98200005}
  m_MoveThreshold: 0.1
  m_Carve: 1
  m_CarveOnlyStationary: 1
  m_Center: {x: 0, y: 0.13900001, z: -0.018000001}
  m_TimeToStationary: 0.5
--- !u!135 &1416707573
SphereCollider:
  m_ObjectHideFlags: 0
  m_CorrespondingSourceObject: {fileID: 0}
  m_PrefabInstance: {fileID: 0}
  m_PrefabAsset: {fileID: 0}
  m_GameObject: {fileID: 7973652774553775250}
  m_Material: {fileID: 0}
  m_IsTrigger: 0
  m_Enabled: 1
  serializedVersion: 2
  m_Radius: 2.2
  m_Center: {x: 0, y: 0, z: -1}
--- !u!114 &1416707572
MonoBehaviour:
  m_ObjectHideFlags: 0
  m_CorrespondingSourceObject: {fileID: 0}
  m_PrefabInstance: {fileID: 0}
  m_PrefabAsset: {fileID: 0}
  m_GameObject: {fileID: 7973652774553775250}
  m_Enabled: 1
  m_EditorHideFlags: 0
  m_Script: {fileID: 11500000, guid: a3c16653e262e274ab751c9e3ebae51d, type: 3}
  m_Name: 
  m_EditorClassIdentifier: 
  resourceType: 1
  harvestTime: 10
  availableResource: 2000
  gatherers: 0
--- !u!114 &7645505800413737555
MonoBehaviour:
  m_ObjectHideFlags: 0
  m_CorrespondingSourceObject: {fileID: 0}
  m_PrefabInstance: {fileID: 0}
  m_PrefabAsset: {fileID: 0}
  m_GameObject: {fileID: 7973652774553775250}
  m_Enabled: 1
  m_EditorHideFlags: 0
  m_Script: {fileID: 11500000, guid: 0b58a6417dd991148988052a4da8f4ad, type: 3}
  m_Name: 
  m_EditorClassIdentifier: 
  unitType: Iron Mine
  unitRank: Resource
  unitName: Lokar Mine
  unitKills: 0
  weapon: None
  armour: Stone
  items: Iron
  health: 50000
  maxHealth: 50000
  energy: 100
  maxEnergy: 100
  icon: {fileID: 21300000, guid: c2424f3c33ac9634eaecb3ed25c661fc, type: 3}
  placeable: 1
--- !u!1001 &7973652774553676338
PrefabInstance:
  m_ObjectHideFlags: 0
  serializedVersion: 2
  m_Modification:
    m_TransformParent: {fileID: 0}
    m_Modifications:
    - target: {fileID: 100000, guid: 48432a84ce656a541899569c9a290c40, type: 3}
      propertyPath: m_Name
      value: Iron Mine Variant
      objectReference: {fileID: 0}
    - target: {fileID: 100000, guid: 48432a84ce656a541899569c9a290c40, type: 3}
      propertyPath: m_TagString
      value: Resource
      objectReference: {fileID: 0}
    - target: {fileID: 100000, guid: 48432a84ce656a541899569c9a290c40, type: 3}
      propertyPath: m_Layer
      value: 0
      objectReference: {fileID: 0}
    - target: {fileID: 400000, guid: 48432a84ce656a541899569c9a290c40, type: 3}
      propertyPath: m_LocalPosition.x
      value: 49
      objectReference: {fileID: 0}
    - target: {fileID: 400000, guid: 48432a84ce656a541899569c9a290c40, type: 3}
      propertyPath: m_LocalPosition.y
      value: 2.9
      objectReference: {fileID: 0}
    - target: {fileID: 400000, guid: 48432a84ce656a541899569c9a290c40, type: 3}
      propertyPath: m_LocalPosition.z
      value: 3.9
      objectReference: {fileID: 0}
    - target: {fileID: 400000, guid: 48432a84ce656a541899569c9a290c40, type: 3}
      propertyPath: m_LocalRotation.x
      value: -0.5609853
      objectReference: {fileID: 0}
    - target: {fileID: 400000, guid: 48432a84ce656a541899569c9a290c40, type: 3}
      propertyPath: m_LocalRotation.y
      value: 0.43045983
      objectReference: {fileID: 0}
    - target: {fileID: 400000, guid: 48432a84ce656a541899569c9a290c40, type: 3}
      propertyPath: m_LocalRotation.z
      value: 0.43045968
      objectReference: {fileID: 0}
    - target: {fileID: 400000, guid: 48432a84ce656a541899569c9a290c40, type: 3}
      propertyPath: m_LocalRotation.w
      value: 0.56098515
      objectReference: {fileID: 0}
    - target: {fileID: 400000, guid: 48432a84ce656a541899569c9a290c40, type: 3}
      propertyPath: m_RootOrder
      value: 0
      objectReference: {fileID: 0}
    - target: {fileID: 400000, guid: 48432a84ce656a541899569c9a290c40, type: 3}
      propertyPath: m_LocalEulerAnglesHint.x
      value: -90.00001
      objectReference: {fileID: 0}
    - target: {fileID: 400000, guid: 48432a84ce656a541899569c9a290c40, type: 3}
      propertyPath: m_LocalEulerAnglesHint.y
      value: 0
      objectReference: {fileID: 0}
    - target: {fileID: 400000, guid: 48432a84ce656a541899569c9a290c40, type: 3}
      propertyPath: m_LocalEulerAnglesHint.z
      value: 75
      objectReference: {fileID: 0}
    - target: {fileID: 400000, guid: 48432a84ce656a541899569c9a290c40, type: 3}
      propertyPath: m_LocalScale.x
      value: 3
      objectReference: {fileID: 0}
    - target: {fileID: 400000, guid: 48432a84ce656a541899569c9a290c40, type: 3}
      propertyPath: m_LocalScale.y
      value: 3
      objectReference: {fileID: 0}
    - target: {fileID: 400000, guid: 48432a84ce656a541899569c9a290c40, type: 3}
      propertyPath: m_LocalScale.z
      value: 3
      objectReference: {fileID: 0}
    m_RemovedComponents: []
  m_SourcePrefab: {fileID: 100100000, guid: 48432a84ce656a541899569c9a290c40, type: 3}
--- !u!1 &7973652774553775250 stripped
GameObject:
  m_CorrespondingSourceObject: {fileID: 100000, guid: 48432a84ce656a541899569c9a290c40,
    type: 3}
  m_PrefabInstance: {fileID: 7973652774553676338}
  m_PrefabAsset: {fileID: 0}
