%YAML 1.1
%TAG !u! tag:unity3d.com,2011:
--- !u!208 &1555603650
NavMeshObstacle:
  m_ObjectHideFlags: 0
  m_CorrespondingSourceObject: {fileID: 0}
  m_PrefabInstance: {fileID: 0}
  m_PrefabAsset: {fileID: 0}
  m_GameObject: {fileID: 342468219474060922}
  m_Enabled: 1
  serializedVersion: 3
  m_Shape: 0
  m_Extents: {x: 0.005, y: 0.005, z: 0.005}
  m_MoveThreshold: 0.1
  m_Carve: 1
  m_CarveOnlyStationary: 1
  m_Center: {x: 0, y: 0, z: 0.007}
  m_TimeToStationary: 0.5
--- !u!135 &1555603653
SphereCollider:
  m_ObjectHideFlags: 0
  m_CorrespondingSourceObject: {fileID: 0}
  m_PrefabInstance: {fileID: 0}
  m_PrefabAsset: {fileID: 0}
  m_GameObject: {fileID: 342468219474060922}
  m_Material: {fileID: 0}
  m_IsTrigger: 1
  m_Enabled: 1
  serializedVersion: 2
  m_Radius: 0.025
  m_Center: {x: 0, y: 0, z: 0.01}
--- !u!114 &1555603651
MonoBehaviour:
  m_ObjectHideFlags: 0
  m_CorrespondingSourceObject: {fileID: 0}
  m_PrefabInstance: {fileID: 0}
  m_PrefabAsset: {fileID: 0}
  m_GameObject: {fileID: 342468219474060922}
  m_Enabled: 1
  m_EditorHideFlags: 0
  m_Script: {fileID: 11500000, guid: a3c16653e262e274ab751c9e3ebae51d, type: 3}
  m_Name: 
  m_EditorClassIdentifier: 
  resourceType: 0
  harvestTime: 5
  availableResource: 100
  gatherers: 0
--- !u!114 &2959483901739689839
MonoBehaviour:
  m_ObjectHideFlags: 0
  m_CorrespondingSourceObject: {fileID: 0}
  m_PrefabInstance: {fileID: 0}
  m_PrefabAsset: {fileID: 0}
  m_GameObject: {fileID: 342468219474060922}
  m_Enabled: 1
  m_EditorHideFlags: 0
  m_Script: {fileID: 11500000, guid: 0b58a6417dd991148988052a4da8f4ad, type: 3}
  m_Name: 
  m_EditorClassIdentifier: 
  unitType: Skystone
  unitRank: Resource
  unitName: Skystone
  unitKills: 0
  weapon: None
  armour: Skymetal
  items: Skymetal
  health: 100000
  maxHealth: 100000
  energy: 100
  maxEnergy: 100
  icon: {fileID: 21300000, guid: 3b3dfb2064fb52c448df64334d252424, type: 3}
  placeable: 1
--- !u!1001 &342468219474092250
PrefabInstance:
  m_ObjectHideFlags: 0
  serializedVersion: 2
  m_Modification:
    m_TransformParent: {fileID: 0}
    m_Modifications:
    - target: {fileID: 100000, guid: 638ae3fd6b287f34f9e5ea7a03e37483, type: 3}
      propertyPath: m_Name
      value: Skystone Variant
      objectReference: {fileID: 0}
    - target: {fileID: 100000, guid: 638ae3fd6b287f34f9e5ea7a03e37483, type: 3}
      propertyPath: m_TagString
      value: Resource
      objectReference: {fileID: 0}
    - target: {fileID: 400000, guid: 638ae3fd6b287f34f9e5ea7a03e37483, type: 3}
      propertyPath: m_LocalPosition.x
      value: 11.07
      objectReference: {fileID: 0}
    - target: {fileID: 400000, guid: 638ae3fd6b287f34f9e5ea7a03e37483, type: 3}
      propertyPath: m_LocalPosition.y
      value: 0
      objectReference: {fileID: 0}
    - target: {fileID: 400000, guid: 638ae3fd6b287f34f9e5ea7a03e37483, type: 3}
      propertyPath: m_LocalPosition.z
      value: -17
      objectReference: {fileID: 0}
    - target: {fileID: 400000, guid: 638ae3fd6b287f34f9e5ea7a03e37483, type: 3}
      propertyPath: m_LocalRotation.x
      value: -0.7071068
      objectReference: {fileID: 0}
    - target: {fileID: 400000, guid: 638ae3fd6b287f34f9e5ea7a03e37483, type: 3}
      propertyPath: m_LocalRotation.y
      value: -0
      objectReference: {fileID: 0}
    - target: {fileID: 400000, guid: 638ae3fd6b287f34f9e5ea7a03e37483, type: 3}
      propertyPath: m_LocalRotation.z
      value: -0
      objectReference: {fileID: 0}
    - target: {fileID: 400000, guid: 638ae3fd6b287f34f9e5ea7a03e37483, type: 3}
      propertyPath: m_LocalRotation.w
      value: 0.7071067
      objectReference: {fileID: 0}
    - target: {fileID: 400000, guid: 638ae3fd6b287f34f9e5ea7a03e37483, type: 3}
      propertyPath: m_RootOrder
      value: 0
      objectReference: {fileID: 0}
    - target: {fileID: 400000, guid: 638ae3fd6b287f34f9e5ea7a03e37483, type: 3}
      propertyPath: m_LocalEulerAnglesHint.x
      value: 0
      objectReference: {fileID: 0}
    - target: {fileID: 400000, guid: 638ae3fd6b287f34f9e5ea7a03e37483, type: 3}
      propertyPath: m_LocalEulerAnglesHint.y
      value: 0
      objectReference: {fileID: 0}
    - target: {fileID: 400000, guid: 638ae3fd6b287f34f9e5ea7a03e37483, type: 3}
      propertyPath: m_LocalEulerAnglesHint.z
      value: 0
      objectReference: {fileID: 0}
    - target: {fileID: 400000, guid: 638ae3fd6b287f34f9e5ea7a03e37483, type: 3}
      propertyPath: m_LocalScale.y
      value: 99.99989
      objectReference: {fileID: 0}
    - target: {fileID: 400000, guid: 638ae3fd6b287f34f9e5ea7a03e37483, type: 3}
      propertyPath: m_LocalScale.z
      value: 99.99989
      objectReference: {fileID: 0}
    - target: {fileID: 2300000, guid: 638ae3fd6b287f34f9e5ea7a03e37483, type: 3}
      propertyPath: m_Materials.Array.data[0]
      value: 
      objectReference: {fileID: 2100000, guid: 153229f4a5e23be4fbf22f8576a9f13a, type: 2}
    m_RemovedComponents: []
  m_SourcePrefab: {fileID: 100100000, guid: 638ae3fd6b287f34f9e5ea7a03e37483, type: 3}
--- !u!1 &342468219474060922 stripped
GameObject:
  m_CorrespondingSourceObject: {fileID: 100000, guid: 638ae3fd6b287f34f9e5ea7a03e37483,
    type: 3}
  m_PrefabInstance: {fileID: 342468219474092250}
  m_PrefabAsset: {fileID: 0}
