%YAML 1.1
%TAG !u! tag:unity3d.com,2011:
--- !u!54 &2011253713565063645
Rigidbody:
  m_ObjectHideFlags: 0
  m_CorrespondingSourceObject: {fileID: 0}
  m_PrefabInstance: {fileID: 0}
  m_PrefabAsset: {fileID: 0}
  m_GameObject: {fileID: 4523337476430360875}
  serializedVersion: 2
  m_Mass: 1
  m_Drag: 0
  m_AngularDrag: 0.05
  m_UseGravity: 1
  m_IsKinematic: 1
  m_Interpolate: 0
  m_Constraints: 0
  m_CollisionDetection: 0
--- !u!114 &620516374900967092
MonoBehaviour:
  m_ObjectHideFlags: 0
  m_CorrespondingSourceObject: {fileID: 0}
  m_PrefabInstance: {fileID: 0}
  m_PrefabAsset: {fileID: 0}
  m_GameObject: {fileID: 4523337476430360875}
  m_Enabled: 1
  m_EditorHideFlags: 0
  m_Script: {fileID: 11500000, guid: 0b58a6417dd991148988052a4da8f4ad, type: 3}
  m_Name: 
  m_EditorClassIdentifier: 
  unitType: Farm
  unitRank: Building
  unitName: Kraemer Estate
  unitKills: 0
  weapon: None
  armour: Wood
  items: None
  health: 5000
  maxHealth: 5000
  energy: 100
  maxEnergy: 100
  icon: {fileID: 21300000, guid: ac3e8fdf76f82c243b857483615cf3fc, type: 3}
  placeable: 1
--- !u!1001 &5829596446570234834
PrefabInstance:
  m_ObjectHideFlags: 0
  serializedVersion: 2
  m_Modification:
    m_TransformParent: {fileID: 0}
    m_Modifications:
    - target: {fileID: 7935620088447972089, guid: 48fd212036b0d304285c7c5ddf277ccc,
        type: 3}
      propertyPath: m_Name
      value: Farm Variant
      objectReference: {fileID: 0}
    - target: {fileID: 8505143177118010754, guid: 48fd212036b0d304285c7c5ddf277ccc,
        type: 3}
      propertyPath: m_Size.z
      value: 2
      objectReference: {fileID: 0}
    - target: {fileID: 8505143177118010754, guid: 48fd212036b0d304285c7c5ddf277ccc,
        type: 3}
      propertyPath: m_Center.x
      value: 0
      objectReference: {fileID: 0}
    - target: {fileID: 8505143177118010754, guid: 48fd212036b0d304285c7c5ddf277ccc,
        type: 3}
      propertyPath: m_Center.z
      value: 0
      objectReference: {fileID: 0}
    - target: {fileID: 8505143177118010754, guid: 48fd212036b0d304285c7c5ddf277ccc,
        type: 3}
      propertyPath: m_Size.x
      value: 2
      objectReference: {fileID: 0}
    - target: {fileID: 8505143177118010754, guid: 48fd212036b0d304285c7c5ddf277ccc,
        type: 3}
      propertyPath: m_Size.y
      value: 0.4
      objectReference: {fileID: 0}
    - target: {fileID: 8505143177118010754, guid: 48fd212036b0d304285c7c5ddf277ccc,
        type: 3}
      propertyPath: m_IsTrigger
      value: 0
      objectReference: {fileID: 0}
    - target: {fileID: 7935620088447972038, guid: 48fd212036b0d304285c7c5ddf277ccc,
        type: 3}
      propertyPath: m_Extents.y
      value: 0.15
      objectReference: {fileID: 0}
    - target: {fileID: 7935620088447972038, guid: 48fd212036b0d304285c7c5ddf277ccc,
        type: 3}
      propertyPath: m_Center.y
      value: 0.1
      objectReference: {fileID: 0}
    - target: {fileID: 7935620088447972036, guid: 48fd212036b0d304285c7c5ddf277ccc,
        type: 3}
      propertyPath: m_LocalPosition.x
      value: 40.47265
      objectReference: {fileID: 0}
    - target: {fileID: 7935620088447972036, guid: 48fd212036b0d304285c7c5ddf277ccc,
        type: 3}
      propertyPath: m_LocalPosition.y
      value: 0
      objectReference: {fileID: 0}
    - target: {fileID: 7935620088447972036, guid: 48fd212036b0d304285c7c5ddf277ccc,
        type: 3}
      propertyPath: m_LocalPosition.z
      value: 32.901676
      objectReference: {fileID: 0}
    - target: {fileID: 7935620088447972036, guid: 48fd212036b0d304285c7c5ddf277ccc,
        type: 3}
      propertyPath: m_LocalRotation.x
      value: -0
      objectReference: {fileID: 0}
    - target: {fileID: 7935620088447972036, guid: 48fd212036b0d304285c7c5ddf277ccc,
        type: 3}
      propertyPath: m_LocalRotation.y
      value: -0
      objectReference: {fileID: 0}
    - target: {fileID: 7935620088447972036, guid: 48fd212036b0d304285c7c5ddf277ccc,
        type: 3}
      propertyPath: m_LocalRotation.z
      value: -0
      objectReference: {fileID: 0}
    - target: {fileID: 7935620088447972036, guid: 48fd212036b0d304285c7c5ddf277ccc,
        type: 3}
      propertyPath: m_LocalRotation.w
      value: 1
      objectReference: {fileID: 0}
    - target: {fileID: 7935620088447972036, guid: 48fd212036b0d304285c7c5ddf277ccc,
        type: 3}
      propertyPath: m_RootOrder
      value: 0
      objectReference: {fileID: 0}
    - target: {fileID: 7935620088447972036, guid: 48fd212036b0d304285c7c5ddf277ccc,
        type: 3}
      propertyPath: m_LocalEulerAnglesHint.x
      value: 0
      objectReference: {fileID: 0}
    - target: {fileID: 7935620088447972036, guid: 48fd212036b0d304285c7c5ddf277ccc,
        type: 3}
      propertyPath: m_LocalEulerAnglesHint.y
      value: 0
      objectReference: {fileID: 0}
    - target: {fileID: 7935620088447972036, guid: 48fd212036b0d304285c7c5ddf277ccc,
        type: 3}
      propertyPath: m_LocalEulerAnglesHint.z
      value: 0
      objectReference: {fileID: 0}
    - target: {fileID: 4097260656852633185, guid: 48fd212036b0d304285c7c5ddf277ccc,
        type: 3}
      propertyPath: harvestTime
      value: 1
      objectReference: {fileID: 0}
    - target: {fileID: 7935620088254770053, guid: 48fd212036b0d304285c7c5ddf277ccc,
        type: 3}
      propertyPath: m_Materials.Array.data[0]
      value: 
      objectReference: {fileID: 2100000, guid: e1e01d5e2ee1ea442adeb9e3f99d9cf3, type: 2}
    - target: {fileID: 7935620088388299177, guid: 48fd212036b0d304285c7c5ddf277ccc,
        type: 3}
      propertyPath: m_Materials.Array.data[0]
      value: 
      objectReference: {fileID: 2100000, guid: e1e01d5e2ee1ea442adeb9e3f99d9cf3, type: 2}
    - target: {fileID: 7935620088437434742, guid: 48fd212036b0d304285c7c5ddf277ccc,
        type: 3}
      propertyPath: m_Materials.Array.data[0]
      value: 
      objectReference: {fileID: 2100000, guid: e1e01d5e2ee1ea442adeb9e3f99d9cf3, type: 2}
    - target: {fileID: 7935620088422125660, guid: 48fd212036b0d304285c7c5ddf277ccc,
        type: 3}
      propertyPath: m_Materials.Array.data[0]
      value: 
      objectReference: {fileID: 2100000, guid: 2ea94a6f27fccee429e0470342f7fb0f, type: 2}
    - target: {fileID: 7935620087516652029, guid: 48fd212036b0d304285c7c5ddf277ccc,
        type: 3}
      propertyPath: m_Materials.Array.data[0]
      value: 
      objectReference: {fileID: 2100000, guid: e1e01d5e2ee1ea442adeb9e3f99d9cf3, type: 2}
    - target: {fileID: 7935620087459607237, guid: 48fd212036b0d304285c7c5ddf277ccc,
        type: 3}
      propertyPath: m_Materials.Array.data[0]
      value: 
      objectReference: {fileID: 2100000, guid: e1e01d5e2ee1ea442adeb9e3f99d9cf3, type: 2}
    - target: {fileID: 7935620087740549750, guid: 48fd212036b0d304285c7c5ddf277ccc,
        type: 3}
      propertyPath: m_Materials.Array.data[0]
      value: 
      objectReference: {fileID: 2100000, guid: e1e01d5e2ee1ea442adeb9e3f99d9cf3, type: 2}
    - target: {fileID: 7935620087921782417, guid: 48fd212036b0d304285c7c5ddf277ccc,
        type: 3}
      propertyPath: m_Materials.Array.data[0]
      value: 
      objectReference: {fileID: 2100000, guid: e1e01d5e2ee1ea442adeb9e3f99d9cf3, type: 2}
    - target: {fileID: 7935620086956556102, guid: 48fd212036b0d304285c7c5ddf277ccc,
        type: 3}
      propertyPath: m_Materials.Array.data[0]
      value: 
      objectReference: {fileID: 2100000, guid: e1e01d5e2ee1ea442adeb9e3f99d9cf3, type: 2}
    - target: {fileID: 7935620086933502891, guid: 48fd212036b0d304285c7c5ddf277ccc,
        type: 3}
      propertyPath: m_Materials.Array.data[0]
      value: 
      objectReference: {fileID: 2100000, guid: e1e01d5e2ee1ea442adeb9e3f99d9cf3, type: 2}
    m_RemovedComponents: []
  m_SourcePrefab: {fileID: 100100000, guid: 48fd212036b0d304285c7c5ddf277ccc, type: 3}
--- !u!1 &4523337476430360875 stripped
GameObject:
  m_CorrespondingSourceObject: {fileID: 7935620088447972089, guid: 48fd212036b0d304285c7c5ddf277ccc,
    type: 3}
  m_PrefabInstance: {fileID: 5829596446570234834}
  m_PrefabAsset: {fileID: 0}
