%YAML 1.1
%TAG !u! tag:unity3d.com,2011:
--- !u!1001 &119647760777049397
PrefabInstance:
  m_ObjectHideFlags: 0
  serializedVersion: 2
  m_Modification:
    m_TransformParent: {fileID: 0}
    m_Modifications:
    - target: {fileID: 1583766302, guid: 01e0fb882932b0b4dba09b53d24c8f00, type: 3}
      propertyPath: m_Name
      value: Campfire
      objectReference: {fileID: 0}
    - target: {fileID: 1583766305, guid: 01e0fb882932b0b4dba09b53d24c8f00, type: 3}
      propertyPath: m_LocalPosition.x
      value: -5
      objectReference: {fileID: 0}
    - target: {fileID: 1583766305, guid: 01e0fb882932b0b4dba09b53d24c8f00, type: 3}
      propertyPath: m_LocalPosition.y
      value: 0.62
      objectReference: {fileID: 0}
    - target: {fileID: 1583766305, guid: 01e0fb882932b0b4dba09b53d24c8f00, type: 3}
      propertyPath: m_LocalPosition.z
      value: -68.361435
      objectReference: {fileID: 0}
    - target: {fileID: 1583766305, guid: 01e0fb882932b0b4dba09b53d24c8f00, type: 3}
      propertyPath: m_LocalRotation.x
      value: -0
      objectReference: {fileID: 0}
    - target: {fileID: 1583766305, guid: 01e0fb882932b0b4dba09b53d24c8f00, type: 3}
      propertyPath: m_LocalRotation.y
      value: -0
      objectReference: {fileID: 0}
    - target: {fileID: 1583766305, guid: 01e0fb882932b0b4dba09b53d24c8f00, type: 3}
      propertyPath: m_LocalRotation.z
      value: -0
      objectReference: {fileID: 0}
    - target: {fileID: 1583766305, guid: 01e0fb882932b0b4dba09b53d24c8f00, type: 3}
      propertyPath: m_LocalRotation.w
      value: 1
      objectReference: {fileID: 0}
    - target: {fileID: 1583766305, guid: 01e0fb882932b0b4dba09b53d24c8f00, type: 3}
      propertyPath: m_RootOrder
      value: 0
      objectReference: {fileID: 0}
    - target: {fileID: 1583766305, guid: 01e0fb882932b0b4dba09b53d24c8f00, type: 3}
      propertyPath: m_LocalEulerAnglesHint.x
      value: 0
      objectReference: {fileID: 0}
    - target: {fileID: 1583766305, guid: 01e0fb882932b0b4dba09b53d24c8f00, type: 3}
      propertyPath: m_LocalEulerAnglesHint.y
      value: 0
      objectReference: {fileID: 0}
    - target: {fileID: 1583766305, guid: 01e0fb882932b0b4dba09b53d24c8f00, type: 3}
      propertyPath: m_LocalEulerAnglesHint.z
      value: 0
      objectReference: {fileID: 0}
    - target: {fileID: 1583766303, guid: 01e0fb882932b0b4dba09b53d24c8f00, type: 3}
      propertyPath: MaxDistance
      value: 1.01
      objectReference: {fileID: 0}
    - target: {fileID: 1583766303, guid: 01e0fb882932b0b4dba09b53d24c8f00, type: 3}
      propertyPath: rolloffMode
      value: 2
      objectReference: {fileID: 0}
    - target: {fileID: 1583766303, guid: 01e0fb882932b0b4dba09b53d24c8f00, type: 3}
      propertyPath: rolloffCustomCurve.m_Curve.Array.data[0].time
      value: 0
      objectReference: {fileID: 0}
    - target: {fileID: 1583766303, guid: 01e0fb882932b0b4dba09b53d24c8f00, type: 3}
      propertyPath: rolloffCustomCurve.m_Curve.Array.data[0].inSlope
      value: -2.0008
      objectReference: {fileID: 0}
    - target: {fileID: 1583766303, guid: 01e0fb882932b0b4dba09b53d24c8f00, type: 3}
      propertyPath: rolloffCustomCurve.m_Curve.Array.data[0].outSlope
      value: -2.0008
      objectReference: {fileID: 0}
    - target: {fileID: 1583766303, guid: 01e0fb882932b0b4dba09b53d24c8f00, type: 3}
      propertyPath: rolloffCustomCurve.m_Curve.Array.data[0].inWeight
      value: 0
      objectReference: {fileID: 0}
    - target: {fileID: 1583766303, guid: 01e0fb882932b0b4dba09b53d24c8f00, type: 3}
      propertyPath: rolloffCustomCurve.m_Curve.Array.data[0].outWeight
      value: 0
      objectReference: {fileID: 0}
    - target: {fileID: 1583766303, guid: 01e0fb882932b0b4dba09b53d24c8f00, type: 3}
      propertyPath: rolloffCustomCurve.m_Curve.Array.data[1].time
      value: 0.62872314
      objectReference: {fileID: 0}
    - target: {fileID: 1583766303, guid: 01e0fb882932b0b4dba09b53d24c8f00, type: 3}
      propertyPath: rolloffCustomCurve.m_Curve.Array.data[1].inSlope
      value: -0.5002
      objectReference: {fileID: 0}
    - target: {fileID: 1583766303, guid: 01e0fb882932b0b4dba09b53d24c8f00, type: 3}
      propertyPath: rolloffCustomCurve.m_Curve.Array.data[1].outSlope
      value: -0.5002
      objectReference: {fileID: 0}
    - target: {fileID: 1583766303, guid: 01e0fb882932b0b4dba09b53d24c8f00, type: 3}
      propertyPath: rolloffCustomCurve.m_Curve.Array.data[1].inWeight
      value: 0
      objectReference: {fileID: 0}
    - target: {fileID: 1583766303, guid: 01e0fb882932b0b4dba09b53d24c8f00, type: 3}
      propertyPath: rolloffCustomCurve.m_Curve.Array.data[1].outWeight
      value: 0
      objectReference: {fileID: 0}
    - target: {fileID: 1583766303, guid: 01e0fb882932b0b4dba09b53d24c8f00, type: 3}
      propertyPath: rolloffCustomCurve.m_Curve.Array.data[0].value
      value: 0.6680794
      objectReference: {fileID: 0}
    - target: {fileID: 1583766303, guid: 01e0fb882932b0b4dba09b53d24c8f00, type: 3}
      propertyPath: spreadCustomCurve.m_Curve.Array.data[0].value
      value: 0.13611111
      objectReference: {fileID: 0}
    - target: {fileID: 1583766303, guid: 01e0fb882932b0b4dba09b53d24c8f00, type: 3}
      propertyPath: panLevelCustomCurve.m_Curve.Array.data[0].value
      value: 0.145
      objectReference: {fileID: 0}
    - target: {fileID: 1583766303, guid: 01e0fb882932b0b4dba09b53d24c8f00, type: 3}
      propertyPath: m_Volume
      value: 0.573
      objectReference: {fileID: 0}
    - target: {fileID: 2117808970, guid: 01e0fb882932b0b4dba09b53d24c8f00, type: 3}
      propertyPath: m_LocalPosition.y
      value: 4
      objectReference: {fileID: 0}
    - target: {fileID: 2117808971, guid: 01e0fb882932b0b4dba09b53d24c8f00, type: 3}
      propertyPath: m_Range
      value: 70
      objectReference: {fileID: 0}
    - target: {fileID: 2117808971, guid: 01e0fb882932b0b4dba09b53d24c8f00, type: 3}
      propertyPath: m_Intensity
      value: 8
      objectReference: {fileID: 0}
    - target: {fileID: 2117808971, guid: 01e0fb882932b0b4dba09b53d24c8f00, type: 3}
      propertyPath: m_BounceIntensity
      value: 1
      objectReference: {fileID: 0}
    m_RemovedComponents: []
  m_SourcePrefab: {fileID: 100100000, guid: 01e0fb882932b0b4dba09b53d24c8f00, type: 3}
