%YAML 1.1
%TAG !u! tag:unity3d.com,2011:
--- !u!78 &1
TagManager:
  serializedVersion: 2
  tags:
  - Friendly Unit
  - Doorway
  - Ground
  - Selectable
  - Enemy Unit
  - Resource
  - SelectedIndicator
  - Drops
  - Yard
  - Unit Panel
  - UI
  - Minimap
  - Placing
  - House
  - Town Hall
  - No Resources
  - Barracks
  - Fort
  - Blacksmith
  - Lumber Yard
  - Stables
  - Trees
  layers:
  - Default
  - TransparentFX
  - Ignore Raycast
  - 
  - Water
  - UI
  - 
  - 
  - PostProcessing
  - Clickable
  - Player
  - Building
  - 
  - 
  - 
  - 
  - 
  - 
  - 
  - 
  - 
  - 
  - 
  - 
  - 
  - 
  - 
  - 
  - 
  - 
  - 
  - 
  m_SortingLayers:
  - name: Default
    uniqueID: 0
    locked: 0
